This Month I Learned
…
---

.pull-left[

```r
starwars %>% 
  select(name, films)
```
]

.pull-right[

```
## # A tibble: 87 x 2
##    name               films    
##    <chr>              <list>   
##  1 Luke Skywalker     <chr [5]>
##  2 C-3PO              <chr [6]>
##  3 R2-D2              <chr [7]>
##  4 Darth Vader        <chr [4]>
##  5 Leia Organa        <chr [5]>
##  6 Owen Lars          <chr [3]>
##  7 Beru Whitesun lars <chr [3]>
##  8 R5-D4              <chr [1]>
##  9 Biggs Darklighter  <chr [1]>
## 10 Obi-Wan Kenobi     <chr [6]>
## # … with 77 more rows
```
…
.pull-left[

```r
starwars %>% 
  select(name, films) %>% 
  rowwise() %>% 
  mutate(n_films = length(films))
```
]

.pull-right[

```
## # A tibble: 87 x 3
## # Rowwise: 
##    name               films     n_films
##    <chr>              <list>      <int>
##  1 Luke Skywalker     <chr [5]>       5
##  2 C-3PO              <chr [6]>       6
##  3 R2-D2              <chr [7]>       7
##  4 Darth Vader        <chr [4]>       4
##  5 Leia Organa        <chr [5]>       5
##  6 Owen Lars          <chr [3]>       3
##  7 Beru Whitesun lars <chr [3]>       3
##  8 R5-D4              <chr [1]>       1
##  9 Biggs Darklighter  <chr [1]>       1
## 10 Obi-Wan Kenobi     <chr [6]>       6
## # … with 77 more rows
```
…
